%YAML 1.1
%TAG !u! tag:unity3d.com,2011:
--- !u!1 &5569026119857772254
GameObject:
  m_ObjectHideFlags: 0
  m_CorrespondingSourceObject: {fileID: 0}
  m_PrefabInstance: {fileID: 0}
  m_PrefabAsset: {fileID: 0}
  serializedVersion: 6
  m_Component:
  - component: {fileID: 5569026119857772253}
  - component: {fileID: 5569026119857772242}
  - component: {fileID: 5569026119857772243}
  - component: {fileID: 5569026119857772252}
  m_Layer: 0
  m_Name: Cuadrado de canasta 2
  m_TagString: Untagged
  m_Icon: {fileID: 0}
  m_NavMeshLayer: 0
  m_StaticEditorFlags: 0
  m_IsActive: 1
--- !u!4 &5569026119857772253
Transform:
  m_ObjectHideFlags: 0
  m_CorrespondingSourceObject: {fileID: 0}
  m_PrefabInstance: {fileID: 0}
  m_PrefabAsset: {fileID: 0}
  m_GameObject: {fileID: 5569026119857772254}
  m_LocalRotation: {x: -0, y: 0.1616157, z: -0, w: 0.98685384}
  m_LocalPosition: {x: 7.5081196, y: 12.423254, z: 0.50683594}
  m_LocalScale: {x: 0.49669018, y: 1.7645001, z: 2.326301}
  m_Children: []
  m_Father: {fileID: 5569026120305273389}
  m_RootOrder: 0
  m_LocalEulerAnglesHint: {x: 0, y: 18.601002, z: 0}
--- !u!33 &5569026119857772242
MeshFilter:
  m_ObjectHideFlags: 0
  m_CorrespondingSourceObject: {fileID: 0}
  m_PrefabInstance: {fileID: 0}
  m_PrefabAsset: {fileID: 0}
  m_GameObject: {fileID: 5569026119857772254}
  m_Mesh: {fileID: 10202, guid: 0000000000000000e000000000000000, type: 0}
--- !u!23 &5569026119857772243
MeshRenderer:
  m_ObjectHideFlags: 0
  m_CorrespondingSourceObject: {fileID: 0}
  m_PrefabInstance: {fileID: 0}
  m_PrefabAsset: {fileID: 0}
  m_GameObject: {fileID: 5569026119857772254}
  m_Enabled: 1
  m_CastShadows: 1
  m_ReceiveShadows: 1
  m_DynamicOccludee: 1
  m_MotionVectors: 1
  m_LightProbeUsage: 1
  m_ReflectionProbeUsage: 1
  m_RayTracingMode: 2
  m_RenderingLayerMask: 1
  m_RendererPriority: 0
  m_Materials:
  - {fileID: 2100000, guid: 5ade6ed33859e9445ba7cee670518e6f, type: 2}
  m_StaticBatchInfo:
    firstSubMesh: 0
    subMeshCount: 0
  m_StaticBatchRoot: {fileID: 0}
  m_ProbeAnchor: {fileID: 0}
  m_LightProbeVolumeOverride: {fileID: 0}
  m_ScaleInLightmap: 1
  m_ReceiveGI: 1
  m_PreserveUVs: 0
  m_IgnoreNormalsForChartDetection: 0
  m_ImportantGI: 0
  m_StitchLightmapSeams: 1
  m_SelectedEditorRenderState: 3
  m_MinimumChartSize: 4
  m_AutoUVMaxDistance: 0.5
  m_AutoUVMaxAngle: 89
  m_LightmapParameters: {fileID: 0}
  m_SortingLayerID: 0
  m_SortingLayer: 0
  m_SortingOrder: 0
--- !u!65 &5569026119857772252
BoxCollider:
  m_ObjectHideFlags: 0
  m_CorrespondingSourceObject: {fileID: 0}
  m_PrefabInstance: {fileID: 0}
  m_PrefabAsset: {fileID: 0}
  m_GameObject: {fileID: 5569026119857772254}
  m_Material: {fileID: 0}
  m_IsTrigger: 0
  m_Enabled: 1
  serializedVersion: 2
  m_Size: {x: 1, y: 1, z: 1}
  m_Center: {x: 0, y: 0, z: 0}
--- !u!1 &5569026120215849862
GameObject:
  m_ObjectHideFlags: 0
  m_CorrespondingSourceObject: {fileID: 0}
  m_PrefabInstance: {fileID: 0}
  m_PrefabAsset: {fileID: 0}
  serializedVersion: 6
  m_Component:
  - component: {fileID: 5569026120215849861}
  - component: {fileID: 5569026120215849594}
  - component: {fileID: 5569026120215849595}
  - component: {fileID: 5569026120215849860}
  m_Layer: 0
  m_Name: Tapa de canasta (1)
  m_TagString: Untagged
  m_Icon: {fileID: 0}
  m_NavMeshLayer: 0
  m_StaticEditorFlags: 0
  m_IsActive: 1
--- !u!4 &5569026120215849861
Transform:
  m_ObjectHideFlags: 0
  m_CorrespondingSourceObject: {fileID: 0}
  m_PrefabInstance: {fileID: 0}
  m_PrefabAsset: {fileID: 0}
  m_GameObject: {fileID: 5569026120215849862}
  m_LocalRotation: {x: 0.03491163, y: 0.14535277, z: 0.23010452, w: 0.96161616}
  m_LocalPosition: {x: 8.69, y: 12.325, z: 0.065}
  m_LocalScale: {x: 2.1345003, y: -0.14886856, z: 2.134499}
  m_Children: []
  m_Father: {fileID: 5569026120305273389}
  m_RootOrder: 3
  m_LocalEulerAnglesHint: {x: 0.014, y: 17.194, z: 26.917002}
--- !u!33 &5569026120215849594
MeshFilter:
  m_ObjectHideFlags: 0
  m_CorrespondingSourceObject: {fileID: 0}
  m_PrefabInstance: {fileID: 0}
  m_PrefabAsset: {fileID: 0}
  m_GameObject: {fileID: 5569026120215849862}
  m_Mesh: {fileID: 10207, guid: 0000000000000000e000000000000000, type: 0}
--- !u!23 &5569026120215849595
MeshRenderer:
  m_ObjectHideFlags: 0
  m_CorrespondingSourceObject: {fileID: 0}
  m_PrefabInstance: {fileID: 0}
  m_PrefabAsset: {fileID: 0}
  m_GameObject: {fileID: 5569026120215849862}
  m_Enabled: 1
  m_CastShadows: 1
  m_ReceiveShadows: 1
  m_DynamicOccludee: 1
  m_MotionVectors: 1
  m_LightProbeUsage: 1
  m_ReflectionProbeUsage: 1
  m_RayTracingMode: 2
  m_RenderingLayerMask: 1
  m_RendererPriority: 0
  m_Materials:
  - {fileID: 2100000, guid: c3c053be32f866d4eb6cd8d787de4cde, type: 2}
  m_StaticBatchInfo:
    firstSubMesh: 0
    subMeshCount: 0
  m_StaticBatchRoot: {fileID: 0}
  m_ProbeAnchor: {fileID: 0}
  m_LightProbeVolumeOverride: {fileID: 0}
  m_ScaleInLightmap: 1
  m_ReceiveGI: 1
  m_PreserveUVs: 0
  m_IgnoreNormalsForChartDetection: 0
  m_ImportantGI: 0
  m_StitchLightmapSeams: 1
  m_SelectedEditorRenderState: 3
  m_MinimumChartSize: 4
  m_AutoUVMaxDistance: 0.5
  m_AutoUVMaxAngle: 89
  m_LightmapParameters: {fileID: 0}
  m_SortingLayerID: 0
  m_SortingLayer: 0
  m_SortingOrder: 0
--- !u!135 &5569026120215849860
SphereCollider:
  m_ObjectHideFlags: 0
  m_CorrespondingSourceObject: {fileID: 0}
  m_PrefabInstance: {fileID: 0}
  m_PrefabAsset: {fileID: 0}
  m_GameObject: {fileID: 5569026120215849862}
  m_Material: {fileID: 0}
  m_IsTrigger: 0
  m_Enabled: 1
  serializedVersion: 2
  m_Radius: 0.5
  m_Center: {x: 0, y: 0, z: 0}
--- !u!1 &5569026120305273390
GameObject:
  m_ObjectHideFlags: 0
  m_CorrespondingSourceObject: {fileID: 0}
  m_PrefabInstance: {fileID: 0}
  m_PrefabAsset: {fileID: 0}
  serializedVersion: 6
  m_Component:
  - component: {fileID: 5569026120305273389}
  m_Layer: 0
  m_Name: Canasta de Basquet 2
  m_TagString: Untagged
  m_Icon: {fileID: 0}
  m_NavMeshLayer: 0
  m_StaticEditorFlags: 0
  m_IsActive: 1
--- !u!4 &5569026120305273389
Transform:
  m_ObjectHideFlags: 0
  m_CorrespondingSourceObject: {fileID: 0}
  m_PrefabInstance: {fileID: 0}
  m_PrefabAsset: {fileID: 0}
  m_GameObject: {fileID: 5569026120305273390}
  m_LocalRotation: {x: -0, y: -1, z: -0, w: 0}
  m_LocalPosition: {x: -10.636957, y: 9.251997, z: 7.386835}
  m_LocalScale: {x: 1, y: 1, z: 1}
  m_Children:
  - {fileID: 5569026119857772253}
  - {fileID: 5569026120637286970}
  - {fileID: 5569026121451207524}
  - {fileID: 5569026120215849861}
  m_Father: {fileID: 0}
  m_RootOrder: 0
  m_LocalEulerAnglesHint: {x: 0, y: 0, z: 0}
--- !u!1 &5569026120637286971
GameObject:
  m_ObjectHideFlags: 0
  m_CorrespondingSourceObject: {fileID: 0}
  m_PrefabInstance: {fileID: 0}
  m_PrefabAsset: {fileID: 0}
  serializedVersion: 6
  m_Component:
  - component: {fileID: 5569026120637286970}
  - component: {fileID: 5569026120637286974}
  - component: {fileID: 5569026120637286975}
  - component: {fileID: 5569026120637286968}
  - component: {fileID: 5569026120637286969}
  m_Layer: 0
  m_Name: CanastaBasquet2
  m_TagString: Untagged
  m_Icon: {fileID: 0}
  m_NavMeshLayer: 0
  m_StaticEditorFlags: 0
  m_IsActive: 1
--- !u!4 &5569026120637286970
Transform:
  m_ObjectHideFlags: 0
  m_CorrespondingSourceObject: {fileID: 0}
  m_PrefabInstance: {fileID: 0}
  m_PrefabAsset: {fileID: 0}
  m_GameObject: {fileID: 5569026120637286971}
  m_LocalRotation: {x: -0, y: -0.11770222, z: -0, w: 0.99304897}
  m_LocalPosition: {x: 9.67, y: 10.4952545, z: 0.26}
  m_LocalScale: {x: 1, y: 0.67901, z: 1}
  m_Children: []
  m_Father: {fileID: 5569026120305273389}
  m_RootOrder: 1
  m_LocalEulerAnglesHint: {x: 0, y: -13.519001, z: 0}
--- !u!114 &5569026120637286974
MonoBehaviour:
  m_ObjectHideFlags: 0
  m_CorrespondingSourceObject: {fileID: 0}
  m_PrefabInstance: {fileID: 0}
  m_PrefabAsset: {fileID: 0}
  m_GameObject: {fileID: 5569026120637286971}
  m_Enabled: 1
  m_EditorHideFlags: 0
  m_Script: {fileID: 11500000, guid: 8233d90336aea43098adf6dbabd606a2, type: 3}
  m_Name: 
  m_EditorClassIdentifier: 
  m_MeshFormatVersion: 1
  m_Faces:
  - m_Indexes: 000000000100000002000000010000000300000002000000
    m_SmoothingGroup: 0
    m_Uv:
      m_UseWorldSpace: 0
      m_FlipU: 0
      m_FlipV: 0
      m_SwapUV: 0
      m_Fill: 1
      m_Scale: {x: 1, y: 1}
      m_Offset: {x: 0, y: 0}
      m_Rotation: 0
      m_Anchor: 9
    m_Material: {fileID: 0}
    m_SubmeshIndex: 0
    m_ManualUV: 0
    elementGroup: -1
    m_TextureGroup: -1
  - m_Indexes: 040000000500000006000000050000000700000006000000
    m_SmoothingGroup: 0
    m_Uv:
      m_UseWorldSpace: 0
      m_FlipU: 0
      m_FlipV: 0
      m_SwapUV: 0
      m_Fill: 1
      m_Scale: {x: 1, y: 1}
      m_Offset: {x: 0, y: 0}
      m_Rotation: 0
      m_Anchor: 9
    m_Material: {fileID: 0}
    m_SubmeshIndex: 0
    m_ManualUV: 0
    elementGroup: -1
    m_TextureGroup: -1
  - m_Indexes: 08000000090000000a000000090000000b0000000a000000
    m_SmoothingGroup: 0
    m_Uv:
      m_UseWorldSpace: 0
      m_FlipU: 0
      m_FlipV: 0
      m_SwapUV: 0
      m_Fill: 1
      m_Scale: {x: 1, y: 1}
      m_Offset: {x: 0, y: 0}
      m_Rotation: 0
      m_Anchor: 9
    m_Material: {fileID: 0}
    m_SubmeshIndex: 0
    m_ManualUV: 0
    elementGroup: -1
    m_TextureGroup: -1
  - m_Indexes: 0c0000000d0000000e0000000d0000000f0000000e000000
    m_SmoothingGroup: 0
    m_Uv:
      m_UseWorldSpace: 0
      m_FlipU: 0
      m_FlipV: 0
      m_SwapUV: 0
      m_Fill: 1
      m_Scale: {x: 1, y: 1}
      m_Offset: {x: 0, y: 0}
      m_Rotation: 0
      m_Anchor: 9
    m_Material: {fileID: 0}
    m_SubmeshIndex: 0
    m_ManualUV: 0
    elementGroup: -1
    m_TextureGroup: -1
  - m_Indexes: 100000001100000012000000110000001300000012000000
    m_SmoothingGroup: 0
    m_Uv:
      m_UseWorldSpace: 0
      m_FlipU: 0
      m_FlipV: 0
      m_SwapUV: 0
      m_Fill: 1
      m_Scale: {x: 1, y: 1}
      m_Offset: {x: 0, y: 0}
      m_Rotation: 0
      m_Anchor: 9
    m_Material: {fileID: 0}
    m_SubmeshIndex: 0
    m_ManualUV: 0
    elementGroup: -1
    m_TextureGroup: -1
  - m_Indexes: 140000001500000016000000150000001700000016000000
    m_SmoothingGroup: 0
    m_Uv:
      m_UseWorldSpace: 0
      m_FlipU: 0
      m_FlipV: 0
      m_SwapUV: 0
      m_Fill: 1
      m_Scale: {x: 1, y: 1}
      m_Offset: {x: 0, y: 0}
      m_Rotation: 0
      m_Anchor: 9
    m_Material: {fileID: 0}
    m_SubmeshIndex: 0
    m_ManualUV: 0
    elementGroup: -1
    m_TextureGroup: -1
  - m_Indexes: 18000000190000001a000000190000001b0000001a000000
    m_SmoothingGroup: 0
    m_Uv:
      m_UseWorldSpace: 0
      m_FlipU: 0
      m_FlipV: 0
      m_SwapUV: 0
      m_Fill: 1
      m_Scale: {x: 1, y: 1}
      m_Offset: {x: 0, y: 0}
      m_Rotation: 0
      m_Anchor: 9
    m_Material: {fileID: 0}
    m_SubmeshIndex: 0
    m_ManualUV: 0
    elementGroup: -1
    m_TextureGroup: -1
  - m_Indexes: 1c0000001d0000001e0000001d0000001f0000001e000000
    m_SmoothingGroup: 0
    m_Uv:
      m_UseWorldSpace: 0
      m_FlipU: 0
      m_FlipV: 0
      m_SwapUV: 0
      m_Fill: 1
      m_Scale: {x: 1, y: 1}
      m_Offset: {x: 0, y: 0}
      m_Rotation: 0
      m_Anchor: 9
    m_Material: {fileID: 0}
    m_SubmeshIndex: 0
    m_ManualUV: 0
    elementGroup: -1
    m_TextureGroup: -1
  - m_Indexes: 200000002100000022000000210000002300000022000000
    m_SmoothingGroup: 0
    m_Uv:
      m_UseWorldSpace: 0
      m_FlipU: 0
      m_FlipV: 0
      m_SwapUV: 0
      m_Fill: 1
      m_Scale: {x: 1, y: 1}
      m_Offset: {x: 0, y: 0}
      m_Rotation: 0
      m_Anchor: 9
    m_Material: {fileID: 0}
    m_SubmeshIndex: 0
    m_ManualUV: 0
    elementGroup: -1
    m_TextureGroup: -1
  - m_Indexes: 240000002500000026000000250000002700000026000000
    m_SmoothingGroup: 0
    m_Uv:
      m_UseWorldSpace: 0
      m_FlipU: 0
      m_FlipV: 0
      m_SwapUV: 0
      m_Fill: 1
      m_Scale: {x: 1, y: 1}
      m_Offset: {x: 0, y: 0}
      m_Rotation: 0
      m_Anchor: 9
    m_Material: {fileID: 0}
    m_SubmeshIndex: 0
    m_ManualUV: 0
    elementGroup: -1
    m_TextureGroup: -1
  - m_Indexes: 28000000290000002a000000290000002b0000002a000000
    m_SmoothingGroup: 0
    m_Uv:
      m_UseWorldSpace: 0
      m_FlipU: 0
      m_FlipV: 0
      m_SwapUV: 0
      m_Fill: 1
      m_Scale: {x: 1, y: 1}
      m_Offset: {x: 0, y: 0}
      m_Rotation: 0
      m_Anchor: 9
    m_Material: {fileID: 0}
    m_SubmeshIndex: 0
    m_ManualUV: 0
    elementGroup: -1
    m_TextureGroup: -1
  - m_Indexes: 2c0000002d0000002e0000002d0000002f0000002e000000
    m_SmoothingGroup: 0
    m_Uv:
      m_UseWorldSpace: 0
      m_FlipU: 0
      m_FlipV: 0
      m_SwapUV: 0
      m_Fill: 1
      m_Scale: {x: 1, y: 1}
      m_Offset: {x: 0, y: 0}
      m_Rotation: 0
      m_Anchor: 9
    m_Material: {fileID: 0}
    m_SubmeshIndex: 0
    m_ManualUV: 0
    elementGroup: -1
    m_TextureGroup: -1
  - m_Indexes: 300000003100000032000000310000003300000032000000
    m_SmoothingGroup: 0
    m_Uv:
      m_UseWorldSpace: 0
      m_FlipU: 0
      m_FlipV: 0
      m_SwapUV: 0
      m_Fill: 1
      m_Scale: {x: 1, y: 1}
      m_Offset: {x: 0, y: 0}
      m_Rotation: 0
      m_Anchor: 9
    m_Material: {fileID: 0}
    m_SubmeshIndex: 0
    m_ManualUV: 0
    elementGroup: -1
    m_TextureGroup: -1
  - m_Indexes: 340000003500000036000000350000003700000036000000
    m_SmoothingGroup: 0
    m_Uv:
      m_UseWorldSpace: 0
      m_FlipU: 0
      m_FlipV: 0
      m_SwapUV: 0
      m_Fill: 1
      m_Scale: {x: 1, y: 1}
      m_Offset: {x: 0, y: 0}
      m_Rotation: 0
      m_Anchor: 9
    m_Material: {fileID: 0}
    m_SubmeshIndex: 0
    m_ManualUV: 0
    elementGroup: -1
    m_TextureGroup: -1
  - m_Indexes: 38000000390000003a000000390000003b0000003a000000
    m_SmoothingGroup: 0
    m_Uv:
      m_UseWorldSpace: 0
      m_FlipU: 0
      m_FlipV: 0
      m_SwapUV: 0
      m_Fill: 1
      m_Scale: {x: 1, y: 1}
      m_Offset: {x: 0, y: 0}
      m_Rotation: 0
      m_Anchor: 9
    m_Material: {fileID: 0}
    m_SubmeshIndex: 0
    m_ManualUV: 0
    elementGroup: -1
    m_TextureGroup: -1
  - m_Indexes: 3c0000003d0000003e0000003d0000003f0000003e000000
    m_SmoothingGroup: 0
    m_Uv:
      m_UseWorldSpace: 0
      m_FlipU: 0
      m_FlipV: 0
      m_SwapUV: 0
      m_Fill: 1
      m_Scale: {x: 1, y: 1}
      m_Offset: {x: 0, y: 0}
      m_Rotation: 0
      m_Anchor: 9
    m_Material: {fileID: 0}
    m_SubmeshIndex: 0
    m_ManualUV: 0
    elementGroup: -1
    m_TextureGroup: -1
  - m_Indexes: 400000004100000042000000410000004300000042000000
    m_SmoothingGroup: 0
    m_Uv:
      m_UseWorldSpace: 0
      m_FlipU: 0
      m_FlipV: 0
      m_SwapUV: 0
      m_Fill: 1
      m_Scale: {x: 1, y: 1}
      m_Offset: {x: 0, y: 0}
      m_Rotation: 0
      m_Anchor: 9
    m_Material: {fileID: 0}
    m_SubmeshIndex: 0
    m_ManualUV: 0
    elementGroup: -1
    m_TextureGroup: -1
  - m_Indexes: 440000004500000046000000450000004700000046000000
    m_SmoothingGroup: 0
    m_Uv:
      m_UseWorldSpace: 0
      m_FlipU: 0
      m_FlipV: 0
      m_SwapUV: 0
      m_Fill: 1
      m_Scale: {x: 1, y: 1}
      m_Offset: {x: 0, y: 0}
      m_Rotation: 0
      m_Anchor: 9
    m_Material: {fileID: 0}
    m_SubmeshIndex: 0
    m_ManualUV: 0
    elementGroup: -1
    m_TextureGroup: -1
  - m_Indexes: 48000000490000004a000000490000004b0000004a000000
    m_SmoothingGroup: 0
    m_Uv:
      m_UseWorldSpace: 0
      m_FlipU: 0
      m_FlipV: 0
      m_SwapUV: 0
      m_Fill: 1
      m_Scale: {x: 1, y: 1}
      m_Offset: {x: 0, y: 0}
      m_Rotation: 0
      m_Anchor: 9
    m_Material: {fileID: 0}
    m_SubmeshIndex: 0
    m_ManualUV: 0
    elementGroup: -1
    m_TextureGroup: -1
  - m_Indexes: 4c0000004d0000004e0000004d0000004f0000004e000000
    m_SmoothingGroup: 0
    m_Uv:
      m_UseWorldSpace: 0
      m_FlipU: 0
      m_FlipV: 0
      m_SwapUV: 0
      m_Fill: 1
      m_Scale: {x: 1, y: 1}
      m_Offset: {x: 0, y: 0}
      m_Rotation: 0
      m_Anchor: 9
    m_Material: {fileID: 0}
    m_SubmeshIndex: 0
    m_ManualUV: 0
    elementGroup: -1
    m_TextureGroup: -1
  - m_Indexes: 500000005100000052000000510000005300000052000000
    m_SmoothingGroup: 0
    m_Uv:
      m_UseWorldSpace: 0
      m_FlipU: 0
      m_FlipV: 0
      m_SwapUV: 0
      m_Fill: 1
      m_Scale: {x: 1, y: 1}
      m_Offset: {x: 0, y: 0}
      m_Rotation: 0
      m_Anchor: 9
    m_Material: {fileID: 0}
    m_SubmeshIndex: 0
    m_ManualUV: 0
    elementGroup: -1
    m_TextureGroup: -1
  - m_Indexes: 540000005500000056000000550000005700000056000000
    m_SmoothingGroup: 0
    m_Uv:
      m_UseWorldSpace: 0
      m_FlipU: 0
      m_FlipV: 0
      m_SwapUV: 0
      m_Fill: 1
      m_Scale: {x: 1, y: 1}
      m_Offset: {x: 0, y: 0}
      m_Rotation: 0
      m_Anchor: 9
    m_Material: {fileID: 0}
    m_SubmeshIndex: 0
    m_ManualUV: 0
    elementGroup: -1
    m_TextureGroup: -1
  - m_Indexes: 58000000590000005a000000590000005b0000005a000000
    m_SmoothingGroup: 0
    m_Uv:
      m_UseWorldSpace: 0
      m_FlipU: 0
      m_FlipV: 0
      m_SwapUV: 0
      m_Fill: 1
      m_Scale: {x: 1, y: 1}
      m_Offset: {x: 0, y: 0}
      m_Rotation: 0
      m_Anchor: 9
    m_Material: {fileID: 0}
    m_SubmeshIndex: 0
    m_ManualUV: 0
    elementGroup: -1
    m_TextureGroup: -1
  - m_Indexes: 5c0000005d0000005e0000005d0000005f0000005e000000
    m_SmoothingGroup: 0
    m_Uv:
      m_UseWorldSpace: 0
      m_FlipU: 0
      m_FlipV: 0
      m_SwapUV: 0
      m_Fill: 1
      m_Scale: {x: 1, y: 1}
      m_Offset: {x: 0, y: 0}
      m_Rotation: 0
      m_Anchor: 9
    m_Material: {fileID: 0}
    m_SubmeshIndex: 0
    m_ManualUV: 0
    elementGroup: -1
    m_TextureGroup: -1
  - m_Indexes: 600000006100000062000000610000006300000062000000
    m_SmoothingGroup: 0
    m_Uv:
      m_UseWorldSpace: 0
      m_FlipU: 0
      m_FlipV: 0
      m_SwapUV: 0
      m_Fill: 1
      m_Scale: {x: 1, y: 1}
      m_Offset: {x: 0, y: 0}
      m_Rotation: 0
      m_Anchor: 9
    m_Material: {fileID: 0}
    m_SubmeshIndex: 0
    m_ManualUV: 0
    elementGroup: -1
    m_TextureGroup: -1
  - m_Indexes: 640000006500000066000000650000006700000066000000
    m_SmoothingGroup: 0
    m_Uv:
      m_UseWorldSpace: 0
      m_FlipU: 0
      m_FlipV: 0
      m_SwapUV: 0
      m_Fill: 1
      m_Scale: {x: 1, y: 1}
      m_Offset: {x: 0, y: 0}
      m_Rotation: 0
      m_Anchor: 9
    m_Material: {fileID: 0}
    m_SubmeshIndex: 0
    m_ManualUV: 0
    elementGroup: -1
    m_TextureGroup: -1
  - m_Indexes: 68000000690000006a000000690000006b0000006a000000
    m_SmoothingGroup: 0
    m_Uv:
      m_UseWorldSpace: 0
      m_FlipU: 0
      m_FlipV: 0
      m_SwapUV: 0
      m_Fill: 1
      m_Scale: {x: 1, y: 1}
      m_Offset: {x: 0, y: 0}
      m_Rotation: 0
      m_Anchor: 9
    m_Material: {fileID: 0}
    m_SubmeshIndex: 0
    m_ManualUV: 0
    elementGroup: -1
    m_TextureGroup: -1
  - m_Indexes: 6c0000006d0000006e0000006d0000006f0000006e000000
    m_SmoothingGroup: 0
    m_Uv:
      m_UseWorldSpace: 0
      m_FlipU: 0
      m_FlipV: 0
      m_SwapUV: 0
      m_Fill: 1
      m_Scale: {x: 1, y: 1}
      m_Offset: {x: 0, y: 0}
      m_Rotation: 0
      m_Anchor: 9
    m_Material: {fileID: 0}
    m_SubmeshIndex: 0
    m_ManualUV: 0
    elementGroup: -1
    m_TextureGroup: -1
  - m_Indexes: 700000007100000072000000710000007300000072000000
    m_SmoothingGroup: 0
    m_Uv:
      m_UseWorldSpace: 0
      m_FlipU: 0
      m_FlipV: 0
      m_SwapUV: 0
      m_Fill: 1
      m_Scale: {x: 1, y: 1}
      m_Offset: {x: 0, y: 0}
      m_Rotation: 0
      m_Anchor: 9
    m_Material: {fileID: 0}
    m_SubmeshIndex: 0
    m_ManualUV: 0
    elementGroup: -1
    m_TextureGroup: -1
  - m_Indexes: 740000007500000076000000750000007700000076000000
    m_SmoothingGroup: 0
    m_Uv:
      m_UseWorldSpace: 0
      m_FlipU: 0
      m_FlipV: 0
      m_SwapUV: 0
      m_Fill: 1
      m_Scale: {x: 1, y: 1}
      m_Offset: {x: 0, y: 0}
      m_Rotation: 0
      m_Anchor: 9
    m_Material: {fileID: 0}
    m_SubmeshIndex: 0
    m_ManualUV: 0
    elementGroup: -1
    m_TextureGroup: -1
  - m_Indexes: 78000000790000007a000000790000007b0000007a000000
    m_SmoothingGroup: 0
    m_Uv:
      m_UseWorldSpace: 0
      m_FlipU: 0
      m_FlipV: 0
      m_SwapUV: 0
      m_Fill: 1
      m_Scale: {x: 1, y: 1}
      m_Offset: {x: 0, y: 0}
      m_Rotation: 0
      m_Anchor: 9
    m_Material: {fileID: 0}
    m_SubmeshIndex: 0
    m_ManualUV: 0
    elementGroup: -1
    m_TextureGroup: -1
  - m_Indexes: 7c0000007d0000007e0000007d0000007f0000007e000000
    m_SmoothingGroup: 0
    m_Uv:
      m_UseWorldSpace: 0
      m_FlipU: 0
      m_FlipV: 0
      m_SwapUV: 0
      m_Fill: 1
      m_Scale: {x: 1, y: 1}
      m_Offset: {x: 0, y: 0}
      m_Rotation: 0
      m_Anchor: 9
    m_Material: {fileID: 0}
    m_SubmeshIndex: 0
    m_ManualUV: 0
    elementGroup: -1
    m_TextureGroup: -1
  - m_Indexes: 800000008100000082000000810000008300000082000000
    m_SmoothingGroup: 0
    m_Uv:
      m_UseWorldSpace: 0
      m_FlipU: 0
      m_FlipV: 0
      m_SwapUV: 0
      m_Fill: 1
      m_Scale: {x: 1, y: 1}
      m_Offset: {x: 0, y: 0}
      m_Rotation: 0
      m_Anchor: 9
    m_Material: {fileID: 0}
    m_SubmeshIndex: 0
    m_ManualUV: 0
    elementGroup: -1
    m_TextureGroup: -1
  - m_Indexes: 840000008500000086000000850000008700000086000000
    m_SmoothingGroup: 0
    m_Uv:
      m_UseWorldSpace: 0
      m_FlipU: 0
      m_FlipV: 0
      m_SwapUV: 0
      m_Fill: 1
      m_Scale: {x: 1, y: 1}
      m_Offset: {x: 0, y: 0}
      m_Rotation: 0
      m_Anchor: 9
    m_Material: {fileID: 0}
    m_SubmeshIndex: 0
    m_ManualUV: 0
    elementGroup: -1
    m_TextureGroup: -1
  - m_Indexes: 88000000890000008a000000890000008b0000008a000000
    m_SmoothingGroup: 0
    m_Uv:
      m_UseWorldSpace: 0
      m_FlipU: 0
      m_FlipV: 0
      m_SwapUV: 0
      m_Fill: 1
      m_Scale: {x: 1, y: 1}
      m_Offset: {x: 0, y: 0}
      m_Rotation: 0
      m_Anchor: 9
    m_Material: {fileID: 0}
    m_SubmeshIndex: 0
    m_ManualUV: 0
    elementGroup: -1
    m_TextureGroup: -1
  - m_Indexes: 8c0000008d0000008e0000008d0000008f0000008e000000
    m_SmoothingGroup: 0
    m_Uv:
      m_UseWorldSpace: 0
      m_FlipU: 0
      m_FlipV: 0
      m_SwapUV: 0
      m_Fill: 1
      m_Scale: {x: 1, y: 1}
      m_Offset: {x: 0, y: 0}
      m_Rotation: 0
      m_Anchor: 9
    m_Material: {fileID: 0}
    m_SubmeshIndex: 0
    m_ManualUV: 0
    elementGroup: -1
    m_TextureGroup: -1
  m_SharedVertices:
  - m_Vertices: 00000000090000006100000068000000
  - m_Vertices: 01000000280000006000000089000000
  - m_Vertices: 020000000b0000003000000039000000
  - m_Vertices: 030000002a0000003100000058000000
  - m_Vertices: 040000002d000000620000008b000000
  - m_Vertices: 050000000c000000630000006a000000
  - m_Vertices: 060000002f000000340000005d000000
  - m_Vertices: 070000000e000000350000003c000000
  - m_Vertices: 08000000110000006900000070000000
  - m_Vertices: 0a000000130000003800000041000000
  - m_Vertices: 0d000000140000006b00000072000000
  - m_Vertices: 0f000000160000003d00000044000000
  - m_Vertices: 10000000190000007100000078000000
  - m_Vertices: 120000001b0000004000000049000000
  - m_Vertices: 150000001c000000730000007a000000
  - m_Vertices: 170000001e000000450000004c000000
  - m_Vertices: 18000000210000007900000080000000
  - m_Vertices: 1a000000230000004800000051000000
  - m_Vertices: 1d000000240000007b00000082000000
  - m_Vertices: 1f000000260000004d00000054000000
  - m_Vertices: 20000000290000008100000088000000
  - m_Vertices: 220000002b0000005000000059000000
  - m_Vertices: 250000002c000000830000008a000000
  - m_Vertices: 270000002e000000550000005c000000
  - m_Vertices: 320000003b000000640000006d000000
  - m_Vertices: 330000005a000000650000008c000000
  - m_Vertices: 360000005f000000670000008e000000
  - m_Vertices: 370000003e000000660000006f000000
  - m_Vertices: 3a000000430000006c00000075000000
  - m_Vertices: 3f000000460000006e00000077000000
  - m_Vertices: 420000004b000000740000007d000000
  - m_Vertices: 470000004e000000760000007f000000
  - m_Vertices: 4a000000530000007c00000085000000
  - m_Vertices: 4f000000560000007e00000087000000
  - m_Vertices: 520000005b000000840000008d000000
  - m_Vertices: 570000005e000000860000008f000000
  m_SharedTextures: []
  m_Positions:
  - {x: -0.5, y: 0, z: 0.86602545}
  - {x: 0, y: 0, z: 0}
  - {x: -0.5, y: 1, z: 0.86602545}
  - {x: 0, y: 1, z: 0}
  - {x: -0.19999999, y: 0, z: 0}
  - {x: -0.6, y: 0, z: 0.69282037}
  - {x: -0.19999999, y: 1, z: 0}
  - {x: -0.6, y: 1, z: 0.69282037}
  - {x: -1.5, y: 0, z: 0.8660254}
  - {x: -0.5, y: 0, z: 0.86602545}
  - {x: -1.5, y: 1, z: 0.8660254}
  - {x: -0.5, y: 1, z: 0.86602545}
  - {x: -0.6, y: 0, z: 0.69282037}
  - {x: -1.4000001, y: 0, z: 0.6928203}
  - {x: -0.6, y: 1, z: 0.69282037}
  - {x: -1.4000001, y: 1, z: 0.6928203}
  - {x: -2, y: 0, z: -0.00000008742278}
  - {x: -1.5, y: 0, z: 0.8660254}
  - {x: -2, y: 1, z: -0.00000008742278}
  - {x: -1.5, y: 1, z: 0.8660254}
  - {x: -1.4000001, y: 0, z: 0.6928203}
  - {x: -1.8, y: 0, z: -0.000000069938224}
  - {x: -1.4000001, y: 1, z: 0.6928203}
  - {x: -1.8, y: 1, z: -0.000000069938224}
  - {x: -1.4999999, y: 0, z: -0.86602545}
  - {x: -2, y: 0, z: -0.00000008742278}
  - {x: -1.4999999, y: 1, z: -0.86602545}
  - {x: -2, y: 1, z: -0.00000008742278}
  - {x: -1.8, y: 0, z: -0.000000069938224}
  - {x: -1.4, y: 0, z: -0.69282037}
  - {x: -1.8, y: 1, z: -0.000000069938224}
  - {x: -1.4, y: 1, z: -0.69282037}
  - {x: -0.5000001, y: 0, z: -0.86602545}
  - {x: -1.4999999, y: 0, z: -0.86602545}
  - {x: -0.5000001, y: 1, z: -0.86602545}
  - {x: -1.4999999, y: 1, z: -0.86602545}
  - {x: -1.4, y: 0, z: -0.69282037}
  - {x: -0.6, y: 0, z: -0.69282037}
  - {x: -1.4, y: 1, z: -0.69282037}
  - {x: -0.6, y: 1, z: -0.69282037}
  - {x: 0, y: 0, z: 0}
  - {x: -0.5000001, y: 0, z: -0.86602545}
  - {x: 0, y: 1, z: 0}
  - {x: -0.5000001, y: 1, z: -0.86602545}
  - {x: -0.6, y: 0, z: -0.69282037}
  - {x: -0.19999999, y: 0, z: 0}
  - {x: -0.6, y: 1, z: -0.69282037}
  - {x: -0.19999999, y: 1, z: 0}
  - {x: -0.5, y: 1, z: 0.86602545}
  - {x: 0, y: 1, z: 0}
  - {x: -0.5, y: 2, z: 0.86602545}
  - {x: 0, y: 2, z: 0}
  - {x: -0.19999999, y: 1, z: 0}
  - {x: -0.6, y: 1, z: 0.69282037}
  - {x: -0.19999999, y: 2, z: 0}
  - {x: -0.6, y: 2, z: 0.69282037}
  - {x: -1.5, y: 1, z: 0.8660254}
  - {x: -0.5, y: 1, z: 0.86602545}
  - {x: -1.5, y: 2, z: 0.8660254}
  - {x: -0.5, y: 2, z: 0.86602545}
  - {x: -0.6, y: 1, z: 0.69282037}
  - {x: -1.4000001, y: 1, z: 0.6928203}
  - {x: -0.6, y: 2, z: 0.69282037}
  - {x: -1.4000001, y: 2, z: 0.6928203}
  - {x: -2, y: 1, z: -0.00000008742278}
  - {x: -1.5, y: 1, z: 0.8660254}
  - {x: -2, y: 2, z: -0.00000008742278}
  - {x: -1.5, y: 2, z: 0.8660254}
  - {x: -1.4000001, y: 1, z: 0.6928203}
  - {x: -1.8, y: 1, z: -0.000000069938224}
  - {x: -1.4000001, y: 2, z: 0.6928203}
  - {x: -1.8, y: 2, z: -0.000000069938224}
  - {x: -1.4999999, y: 1, z: -0.86602545}
  - {x: -2, y: 1, z: -0.00000008742278}
  - {x: -1.4999999, y: 2, z: -0.86602545}
  - {x: -2, y: 2, z: -0.00000008742278}
  - {x: -1.8, y: 1, z: -0.000000069938224}
  - {x: -1.4, y: 1, z: -0.69282037}
  - {x: -1.8, y: 2, z: -0.000000069938224}
  - {x: -1.4, y: 2, z: -0.69282037}
  - {x: -0.5000001, y: 1, z: -0.86602545}
  - {x: -1.4999999, y: 1, z: -0.86602545}
  - {x: -0.5000001, y: 2, z: -0.86602545}
  - {x: -1.4999999, y: 2, z: -0.86602545}
  - {x: -1.4, y: 1, z: -0.69282037}
  - {x: -0.6, y: 1, z: -0.69282037}
  - {x: -1.4, y: 2, z: -0.69282037}
  - {x: -0.6, y: 2, z: -0.69282037}
  - {x: 0, y: 1, z: 0}
  - {x: -0.5000001, y: 1, z: -0.86602545}
  - {x: 0, y: 2, z: 0}
  - {x: -0.5000001, y: 2, z: -0.86602545}
  - {x: -0.6, y: 1, z: -0.69282037}
  - {x: -0.19999999, y: 1, z: 0}
  - {x: -0.6, y: 2, z: -0.69282037}
  - {x: -0.19999999, y: 2, z: 0}
  - {x: 0, y: 0, z: 0}
  - {x: -0.5, y: 0, z: 0.86602545}
  - {x: -0.19999999, y: 0, z: 0}
  - {x: -0.6, y: 0, z: 0.69282037}
  - {x: -0.5, y: 2, z: 0.86602545}
  - {x: 0, y: 2, z: 0}
  - {x: -0.6, y: 2, z: 0.69282037}
  - {x: -0.19999999, y: 2, z: 0}
  - {x: -0.5, y: 0, z: 0.86602545}
  - {x: -1.5, y: 0, z: 0.8660254}
  - {x: -0.6, y: 0, z: 0.69282037}
  - {x: -1.4000001, y: 0, z: 0.6928203}
  - {x: -1.5, y: 2, z: 0.8660254}
  - {x: -0.5, y: 2, z: 0.86602545}
  - {x: -1.4000001, y: 2, z: 0.6928203}
  - {x: -0.6, y: 2, z: 0.69282037}
  - {x: -1.5, y: 0, z: 0.8660254}
  - {x: -2, y: 0, z: -0.00000008742278}
  - {x: -1.4000001, y: 0, z: 0.6928203}
  - {x: -1.8, y: 0, z: -0.000000069938224}
  - {x: -2, y: 2, z: -0.00000008742278}
  - {x: -1.5, y: 2, z: 0.8660254}
  - {x: -1.8, y: 2, z: -0.000000069938224}
  - {x: -1.4000001, y: 2, z: 0.6928203}
  - {x: -2, y: 0, z: -0.00000008742278}
  - {x: -1.4999999, y: 0, z: -0.86602545}
  - {x: -1.8, y: 0, z: -0.000000069938224}
  - {x: -1.4, y: 0, z: -0.69282037}
  - {x: -1.4999999, y: 2, z: -0.86602545}
  - {x: -2, y: 2, z: -0.00000008742278}
  - {x: -1.4, y: 2, z: -0.69282037}
  - {x: -1.8, y: 2, z: -0.000000069938224}
  - {x: -1.4999999, y: 0, z: -0.86602545}
  - {x: -0.5000001, y: 0, z: -0.86602545}
  - {x: -1.4, y: 0, z: -0.69282037}
  - {x: -0.6, y: 0, z: -0.69282037}
  - {x: -0.5000001, y: 2, z: -0.86602545}
  - {x: -1.4999999, y: 2, z: -0.86602545}
  - {x: -0.6, y: 2, z: -0.69282037}
  - {x: -1.4, y: 2, z: -0.69282037}
  - {x: -0.5000001, y: 0, z: -0.86602545}
  - {x: 0, y: 0, z: 0}
  - {x: -0.6, y: 0, z: -0.69282037}
  - {x: -0.19999999, y: 0, z: 0}
  - {x: 0, y: 2, z: 0}
  - {x: -0.5000001, y: 2, z: -0.86602545}
  - {x: -0.19999999, y: 2, z: 0}
  - {x: -0.6, y: 2, z: -0.69282037}
  m_Textures0:
  - {x: 1.0000001, y: 0}
  - {x: 0, y: 0}
  - {x: 1.0000001, y: 1}
  - {x: 0, y: 1}
  - {x: -0.099999994, y: 0}
  - {x: -0.90000004, y: 0}
  - {x: -0.099999994, y: 1}
  - {x: -0.90000004, y: 1}
  - {x: 1.5, y: 0}
  - {x: 0.49999994, y: 0}
  - {x: 1.5, y: 1}
  - {x: 0.49999994, y: 1}
  - {x: -0.59999996, y: 0}
  - {x: -1.4000001, y: 0}
  - {x: -0.59999996, y: 1}
  - {x: -1.4000001, y: 1}
  - {x: 1.0000001, y: 0}
  - {x: -0.000000024696789, y: 0}
  - {x: 1.0000001, y: 1}
  - {x: -0.000000024696789, y: 1}
  - {x: -0.09999978, y: 0}
  - {x: -0.8999998, y: 0}
  - {x: -0.09999978, y: 1}
  - {x: -0.8999998, y: 1}
  - {x: -0.00000009451249, y: 0}
  - {x: -1.0000001, y: 0}
  - {x: -0.00000009451249, y: 1}
  - {x: -1.0000001, y: 1}
  - {x: 0.8999999, y: 0}
  - {x: 0.09999992, y: 0}
  - {x: 0.8999999, y: 1}
  - {x: 0.09999992, y: 1}
  - {x: -0.5000001, y: 0}
  - {x: -1.4999999, y: 0}
  - {x: -0.5000001, y: 1}
  - {x: -1.4999999, y: 1}
  - {x: 1.4, y: 0}
  - {x: 0.6, y: 0}
  - {x: 1.4, y: 1}
  - {x: 0.6, y: 1}
  - {x: 0, y: 0}
  - {x: -1.0000001, y: 0}
  - {x: 0, y: 1}
  - {x: -1.0000001, y: 1}
  - {x: 0.90000004, y: 0}
  - {x: 0.099999994, y: 0}
  - {x: 0.90000004, y: 1}
  - {x: 0.099999994, y: 1}
  - {x: 1.0000001, y: 1}
  - {x: 0, y: 1}
  - {x: 1.0000001, y: 2}
  - {x: 0, y: 2}
  - {x: -0.099999994, y: 1}
  - {x: -0.90000004, y: 1}
  - {x: -0.099999994, y: 2}
  - {x: -0.90000004, y: 2}
  - {x: 1.5, y: 1}
  - {x: 0.49999994, y: 1}
  - {x: 1.5, y: 2}
  - {x: 0.49999994, y: 2}
  - {x: -0.59999996, y: 1}
  - {x: -1.4000001, y: 1}
  - {x: -0.59999996, y: 2}
  - {x: -1.4000001, y: 2}
  - {x: 1.0000001, y: 1}
  - {x: -0.000000024696789, y: 1}
  - {x: 1.0000001, y: 2}
  - {x: -0.000000024696789, y: 2}
  - {x: -0.09999978, y: 1}
  - {x: -0.8999998, y: 1}
  - {x: -0.09999978, y: 2}
  - {x: -0.8999998, y: 2}
  - {x: -0.00000009451249, y: 1}
  - {x: -1.0000001, y: 1}
  - {x: -0.00000009451249, y: 2}
  - {x: -1.0000001, y: 2}
  - {x: 0.8999999, y: 1}
  - {x: 0.09999992, y: 1}
  - {x: 0.8999999, y: 2}
  - {x: 0.09999992, y: 2}
  - {x: -0.5000001, y: 1}
  - {x: -1.4999999, y: 1}
  - {x: -0.5000001, y: 2}
  - {x: -1.4999999, y: 2}
  - {x: 1.4, y: 1}
  - {x: 0.6, y: 1}
  - {x: 1.4, y: 2}
  - {x: 0.6, y: 2}
  - {x: 0, y: 1}
  - {x: -1.0000001, y: 1}
  - {x: 0, y: 2}
  - {x: -1.0000001, y: 2}
  - {x: 0.90000004, y: 1}
  - {x: 0.099999994, y: 1}
  - {x: 0.90000004, y: 2}
  - {x: 0.099999994, y: 2}
  - {x: 0, y: 0}
  - {x: 0.5, y: 0.86602545}
  - {x: 0.19999999, y: 0}
  - {x: 0.6, y: 0.69282037}
  - {x: -0.5, y: 0.86602545}
  - {x: 0, y: 0}
  - {x: -0.6, y: 0.69282037}
  - {x: -0.19999999, y: 0}
  - {x: 0.5, y: 0.86602545}
  - {x: 1.5, y: 0.8660254}
  - {x: 0.6, y: 0.69282037}
  - {x: 1.4000001, y: 0.6928203}
  - {x: -1.5, y: 0.8660254}
  - {x: -0.5, y: 0.86602545}
  - {x: -1.4000001, y: 0.6928203}
  - {x: -0.6, y: 0.69282037}
  - {x: 1.5, y: 0.8660254}
  - {x: 2, y: -0.00000008742278}
  - {x: 1.4000001, y: 0.6928203}
  - {x: 1.8, y: -0.000000069938224}
  - {x: -2, y: -0.00000008742278}
  - {x: -1.5, y: 0.8660254}
  - {x: -1.8, y: -0.000000069938224}
  - {x: -1.4000001, y: 0.6928203}
  - {x: 2, y: -0.00000008742278}
  - {x: 1.4999999, y: -0.86602545}
  - {x: 1.8, y: -0.000000069938224}
  - {x: 1.4, y: -0.69282037}
  - {x: -1.4999999, y: -0.86602545}
  - {x: -2, y: -0.00000008742278}
  - {x: -1.4, y: -0.69282037}
  - {x: -1.8, y: -0.000000069938224}
  - {x: 1.4999999, y: -0.86602545}
  - {x: 0.5000001, y: -0.86602545}
  - {x: 1.4, y: -0.69282037}
  - {x: 0.6, y: -0.69282037}
  - {x: -0.5000001, y: -0.86602545}
  - {x: -1.4999999, y: -0.86602545}
  - {x: -0.6, y: -0.69282037}
  - {x: -1.4, y: -0.69282037}
  - {x: 0.5000001, y: -0.86602545}
  - {x: 0, y: 0}
  - {x: 0.6, y: -0.69282037}
  - {x: 0.19999999, y: 0}
  - {x: 0, y: 0}
  - {x: -0.5000001, y: -0.86602545}
  - {x: -0.19999999, y: 0}
  - {x: -0.6, y: -0.69282037}
  m_Textures2: []
  m_Textures3: []
  m_Tangents:
  - {x: -0.5, y: 0, z: 0.86602545, w: -1}
  - {x: -0.5, y: 0, z: 0.86602545, w: -1}
  - {x: -0.5, y: 0, z: 0.86602545, w: -1}
  - {x: -0.5, y: 0, z: 0.86602545, w: -1}
  - {x: 0.5, y: 0, z: -0.8660254, w: -1}
  - {x: 0.5, y: 0, z: -0.8660254, w: -1}
  - {x: 0.5, y: 0, z: -0.8660254, w: -1}
  - {x: 0.5, y: 0, z: -0.8660254, w: -1}
  - {x: -1, y: 0, z: -0.000000059604645, w: -1}
  - {x: -1, y: 0, z: -0.000000059604645, w: -1}
  - {x: -1, y: 0, z: -0.000000059604645, w: -1}
  - {x: -1, y: 0, z: -0.000000059604645, w: -1}
  - {x: 1, y: 0, z: 0.0000000745058, w: -1}
  - {x: 1, y: 0, z: 0.0000000745058, w: -1}
  - {x: 1, y: 0, z: 0.0000000745058, w: -1}
  - {x: 1, y: 0, z: 0.0000000745058, w: -1}
  - {x: -0.5, y: 0, z: -0.86602545, w: -1}
  - {x: -0.5, y: 0, z: -0.86602545, w: -1}
  - {x: -0.5, y: 0, z: -0.86602545, w: -1}
  - {x: -0.5, y: 0, z: -0.86602545, w: -1}
  - {x: 0.49999985, y: 0, z: 0.8660255, w: -1}
  - {x: 0.49999985, y: 0, z: 0.8660255, w: -1}
  - {x: 0.49999985, y: 0, z: 0.8660255, w: -1}
  - {x: 0.49999985, y: 0, z: 0.8660255, w: -1}
  - {x: 0.5000001, y: 0, z: -0.8660254, w: -1}
  - {x: 0.5000001, y: 0, z: -0.8660254, w: -1}
  - {x: 0.5000001, y: 0, z: -0.8660254, w: -1}
  - {x: 0.5000001, y: 0, z: -0.8660254, w: -1}
  - {x: -0.49999997, y: 0, z: 0.8660254, w: -1}
  - {x: -0.49999997, y: 0, z: 0.8660254, w: -1}
  - {x: -0.49999997, y: 0, z: 0.8660254, w: -1}
  - {x: -0.49999997, y: 0, z: 0.8660254, w: -1}
  - {x: 1, y: 0, z: 0, w: -1}
  - {x: 1, y: 0, z: 0, w: -1}
  - {x: 1, y: 0, z: 0, w: -1}
  - {x: 1, y: 0, z: 0, w: -1}
  - {x: -1, y: 0, z: 0, w: -1}
  - {x: -1, y: 0, z: 0, w: -1}
  - {x: -1, y: 0, z: 0, w: -1}
  - {x: -1, y: 0, z: 0, w: -1}
  - {x: 0.5000001, y: 0, z: 0.8660254, w: -1}
  - {x: 0.5000001, y: 0, z: 0.8660254, w: -1}
  - {x: 0.5000001, y: 0, z: 0.8660254, w: -1}
  - {x: 0.5000001, y: 0, z: 0.8660254, w: -1}
  - {x: -0.5, y: 0, z: -0.8660254, w: -1}
  - {x: -0.5, y: 0, z: -0.8660254, w: -1}
  - {x: -0.5, y: 0, z: -0.8660254, w: -1}
  - {x: -0.5, y: 0, z: -0.8660254, w: -1}
  - {x: -0.5, y: 0, z: 0.86602545, w: -1}
  - {x: -0.5, y: 0, z: 0.86602545, w: -1}
  - {x: -0.5, y: 0, z: 0.86602545, w: -1}
  - {x: -0.5, y: 0, z: 0.86602545, w: -1}
  - {x: 0.5, y: 0, z: -0.8660254, w: -1}
  - {x: 0.5, y: 0, z: -0.8660254, w: -1}
  - {x: 0.5, y: 0, z: -0.8660254, w: -1}
  - {x: 0.5, y: 0, z: -0.8660254, w: -1}
  - {x: -1, y: 0, z: -0.000000059604645, w: -1}
  - {x: -1, y: 0, z: -0.000000059604645, w: -1}
  - {x: -1, y: 0, z: -0.000000059604645, w: -1}
  - {x: -1, y: 0, z: -0.000000059604645, w: -1}
  - {x: 1, y: 0, z: 0.0000000745058, w: -1}
  - {x: 1, y: 0, z: 0.0000000745058, w: -1}
  - {x: 1, y: 0, z: 0.0000000745058, w: -1}
  - {x: 1, y: 0, z: 0.0000000745058, w: -1}
  - {x: -0.5, y: 0, z: -0.86602545, w: -1}
  - {x: -0.5, y: 0, z: -0.86602545, w: -1}
  - {x: -0.5, y: 0, z: -0.86602545, w: -1}
  - {x: -0.5, y: 0, z: -0.86602545, w: -1}
  - {x: 0.49999985, y: 0, z: 0.8660255, w: -1}
  - {x: 0.49999985, y: 0, z: 0.8660255, w: -1}
  - {x: 0.49999985, y: 0, z: 0.8660255, w: -1}
  - {x: 0.49999985, y: 0, z: 0.8660255, w: -1}
  - {x: 0.5000001, y: 0, z: -0.8660254, w: -1}
  - {x: 0.5000001, y: 0, z: -0.8660254, w: -1}
  - {x: 0.5000001, y: 0, z: -0.8660254, w: -1}
  - {x: 0.5000001, y: 0, z: -0.8660254, w: -1}
  - {x: -0.49999997, y: 0, z: 0.8660254, w: -1}
  - {x: -0.49999997, y: 0, z: 0.8660254, w: -1}
  - {x: -0.49999997, y: 0, z: 0.8660254, w: -1}
  - {x: -0.49999997, y: 0, z: 0.8660254, w: -1}
  - {x: 1, y: 0, z: 0, w: -1}
  - {x: 1, y: 0, z: 0, w: -1}
  - {x: 1, y: 0, z: 0, w: -1}
  - {x: 1, y: 0, z: 0, w: -1}
  - {x: -1, y: 0, z: 0, w: -1}
  - {x: -1, y: 0, z: 0, w: -1}
  - {x: -1, y: 0, z: 0, w: -1}
  - {x: -1, y: 0, z: 0, w: -1}
  - {x: 0.5000001, y: 0, z: 0.8660254, w: -1}
  - {x: 0.5000001, y: 0, z: 0.8660254, w: -1}
  - {x: 0.5000001, y: 0, z: 0.8660254, w: -1}
  - {x: 0.5000001, y: 0, z: 0.8660254, w: -1}
  - {x: -0.5, y: 0, z: -0.8660254, w: -1}
  - {x: -0.5, y: 0, z: -0.8660254, w: -1}
  - {x: -0.5, y: 0, z: -0.8660254, w: -1}
  - {x: -0.5, y: 0, z: -0.8660254, w: -1}
  - {x: -1, y: 0, z: 0, w: -1}
  - {x: -1, y: 0, z: 0, w: -1}
  - {x: -1, y: 0, z: 0, w: -1}
  - {x: -1, y: 0, z: 0, w: -1}
  - {x: 1, y: 0, z: 0, w: -1}
  - {x: 1, y: 0, z: 0, w: -1}
  - {x: 1, y: 0, z: 0, w: -1}
  - {x: 1, y: 0, z: 0, w: -1}
  - {x: -1, y: 0, z: 0, w: -1}
  - {x: -1, y: 0, z: 0, w: -1}
  - {x: -1, y: 0, z: 0, w: -1}
  - {x: -1, y: 0, z: 0, w: -1}
  - {x: 1, y: 0, z: 0, w: -1}
  - {x: 1, y: 0, z: 0, w: -1}
  - {x: 1, y: 0, z: 0, w: -1}
  - {x: 1, y: 0, z: 0, w: -1}
  - {x: -1, y: 0, z: 0, w: -1}
  - {x: -1, y: 0, z: 0, w: -1}
  - {x: -1, y: 0, z: 0, w: -1}
  - {x: -1, y: 0, z: 0, w: -1}
  - {x: 1, y: 0, z: 0, w: -1}
  - {x: 1, y: 0, z: 0, w: -1}
  - {x: 1, y: 0, z: 0, w: -1}
  - {x: 1, y: 0, z: 0, w: -1}
  - {x: -1, y: 0, z: 0, w: -1}
  - {x: -1, y: 0, z: 0, w: -1}
  - {x: -1, y: 0, z: 0, w: -1}
  - {x: -1, y: 0, z: 0, w: -1}
  - {x: 1, y: 0, z: 0, w: -1}
  - {x: 1, y: 0, z: 0, w: -1}
  - {x: 1, y: 0, z: 0, w: -1}
  - {x: 1, y: 0, z: 0, w: -1}
  - {x: -1, y: 0, z: 0, w: -1}
  - {x: -1, y: 0, z: 0, w: -1}
  - {x: -1, y: 0, z: 0, w: -1}
  - {x: -1, y: 0, z: 0, w: -1}
  - {x: 1, y: 0, z: 0, w: -1}
  - {x: 1, y: 0, z: 0, w: -1}
  - {x: 1, y: 0, z: 0, w: -1}
  - {x: 1, y: 0, z: 0, w: -1}
  - {x: -1, y: 0, z: 0, w: -1}
  - {x: -1, y: 0, z: 0, w: -1}
  - {x: -1, y: 0, z: 0, w: -1}
  - {x: -1, y: 0, z: 0, w: -1}
  - {x: 1, y: 0, z: 0, w: -1}
  - {x: 1, y: 0, z: 0, w: -1}
  - {x: 1, y: 0, z: 0, w: -1}
  - {x: 1, y: 0, z: 0, w: -1}
  m_Colors: []
  m_UnwrapParameters:
    m_HardAngle: 88
    m_PackMargin: 20
    m_AngleError: 8
    m_AreaError: 15
  m_PreserveMeshAssetOnDestroy: 0
  assetGuid: 
  m_Mesh: {fileID: 0}
  m_IsSelectable: 1
  m_SelectedFaces: 
  m_SelectedEdges: []
  m_SelectedVertices: 
--- !u!23 &5569026120637286975
MeshRenderer:
  m_ObjectHideFlags: 0
  m_CorrespondingSourceObject: {fileID: 0}
  m_PrefabInstance: {fileID: 0}
  m_PrefabAsset: {fileID: 0}
  m_GameObject: {fileID: 5569026120637286971}
  m_Enabled: 1
  m_CastShadows: 1
  m_ReceiveShadows: 1
  m_DynamicOccludee: 1
  m_MotionVectors: 1
  m_LightProbeUsage: 1
  m_ReflectionProbeUsage: 1
  m_RayTracingMode: 2
  m_RenderingLayerMask: 1
  m_RendererPriority: 0
  m_Materials:
  - {fileID: 2100000, guid: c3c053be32f866d4eb6cd8d787de4cde, type: 2}
  m_StaticBatchInfo:
    firstSubMesh: 0
    subMeshCount: 0
  m_StaticBatchRoot: {fileID: 0}
  m_ProbeAnchor: {fileID: 0}
  m_LightProbeVolumeOverride: {fileID: 0}
  m_ScaleInLightmap: 1
  m_ReceiveGI: 1
  m_PreserveUVs: 0
  m_IgnoreNormalsForChartDetection: 0
  m_ImportantGI: 0
  m_StitchLightmapSeams: 1
  m_SelectedEditorRenderState: 2
  m_MinimumChartSize: 4
  m_AutoUVMaxDistance: 0.5
  m_AutoUVMaxAngle: 89
  m_LightmapParameters: {fileID: 0}
  m_SortingLayerID: 0
  m_SortingLayer: 0
  m_SortingOrder: 0
--- !u!33 &5569026120637286968
MeshFilter:
  m_ObjectHideFlags: 0
  m_CorrespondingSourceObject: {fileID: 0}
  m_PrefabInstance: {fileID: 0}
  m_PrefabAsset: {fileID: 0}
  m_GameObject: {fileID: 5569026120637286971}
  m_Mesh: {fileID: 0}
--- !u!64 &5569026120637286969
MeshCollider:
  m_ObjectHideFlags: 0
  m_CorrespondingSourceObject: {fileID: 0}
  m_PrefabInstance: {fileID: 0}
  m_PrefabAsset: {fileID: 0}
  m_GameObject: {fileID: 5569026120637286971}
  m_Material: {fileID: 0}
  m_IsTrigger: 0
  m_Enabled: 1
  serializedVersion: 4
  m_Convex: 0
  m_CookingOptions: 30
  m_Mesh: {fileID: 0}
--- !u!1 &5569026121451207525
GameObject:
  m_ObjectHideFlags: 0
  m_CorrespondingSourceObject: {fileID: 0}
  m_PrefabInstance: {fileID: 0}
  m_PrefabAsset: {fileID: 0}
  serializedVersion: 6
  m_Component:
  - component: {fileID: 5569026121451207524}
  - component: {fileID: 5569026121451207513}
  - component: {fileID: 5569026121451207514}
  - component: {fileID: 5569026121451207515}
  m_Layer: 0
  m_Name: Palo 2
  m_TagString: Untagged
  m_Icon: {fileID: 0}
  m_NavMeshLayer: 0
  m_StaticEditorFlags: 0
  m_IsActive: 1
--- !u!4 &5569026121451207524
Transform:
  m_ObjectHideFlags: 0
  m_CorrespondingSourceObject: {fileID: 0}
  m_PrefabInstance: {fileID: 0}
  m_PrefabAsset: {fileID: 0}
  m_GameObject: {fileID: 5569026121451207525}
  m_LocalRotation: {x: -0, y: -0, z: -0, w: 1}
  m_LocalPosition: {x: 7.8381214, y: 9.523254, z: 0.32683563}
  m_LocalScale: {x: 0.39843312, y: 2.074611, z: 0.4485436}
  m_Children: []
  m_Father: {fileID: 5569026120305273389}
  m_RootOrder: 2
  m_LocalEulerAnglesHint: {x: 0, y: 0, z: 0}
--- !u!33 &5569026121451207513
MeshFilter:
  m_ObjectHideFlags: 0
  m_CorrespondingSourceObject: {fileID: 0}
  m_PrefabInstance: {fileID: 0}
  m_PrefabAsset: {fileID: 0}
  m_GameObject: {fileID: 5569026121451207525}
  m_Mesh: {fileID: 10206, guid: 0000000000000000e000000000000000, type: 0}
--- !u!23 &5569026121451207514
MeshRenderer:
  m_ObjectHideFlags: 0
  m_CorrespondingSourceObject: {fileID: 0}
  m_PrefabInstance: {fileID: 0}
  m_PrefabAsset: {fileID: 0}
  m_GameObject: {fileID: 5569026121451207525}
  m_Enabled: 1
  m_CastShadows: 1
  m_ReceiveShadows: 1
  m_DynamicOccludee: 1
  m_MotionVectors: 1
  m_LightProbeUsage: 1
  m_ReflectionProbeUsage: 1
  m_RayTracingMode: 2
  m_RenderingLayerMask: 1
  m_RendererPriority: 0
  m_Materials:
  - {fileID: 2100000, guid: 5ade6ed33859e9445ba7cee670518e6f, type: 2}
  m_StaticBatchInfo:
    firstSubMesh: 0
    subMeshCount: 0
  m_StaticBatchRoot: {fileID: 0}
  m_ProbeAnchor: {fileID: 0}
  m_LightProbeVolumeOverride: {fileID: 0}
  m_ScaleInLightmap: 1
  m_ReceiveGI: 1
  m_PreserveUVs: 0
  m_IgnoreNormalsForChartDetection: 0
  m_ImportantGI: 0
  m_StitchLightmapSeams: 1
  m_SelectedEditorRenderState: 3
  m_MinimumChartSize: 4
  m_AutoUVMaxDistance: 0.5
  m_AutoUVMaxAngle: 89
  m_LightmapParameters: {fileID: 0}
  m_SortingLayerID: 0
  m_SortingLayer: 0
  m_SortingOrder: 0
--- !u!136 &5569026121451207515
CapsuleCollider:
  m_ObjectHideFlags: 0
  m_CorrespondingSourceObject: {fileID: 0}
  m_PrefabInstance: {fileID: 0}
  m_PrefabAsset: {fileID: 0}
  m_GameObject: {fileID: 5569026121451207525}
  m_Material: {fileID: 0}
  m_IsTrigger: 0
  m_Enabled: 1
  m_Radius: 0.5000001
  m_Height: 2
  m_Direction: 1
  m_Center: {x: 0.000000059604645, y: 0, z: -0.00000008940697}
